{
	"numberFruit": 44,
    "gravityType": 1,
	"timerBurn": 3,
    "mapData" :[[0,0,1,1,1,1,0,0],[0,0,1,1,1,1,0,0],[0,0,1,1,1,1,0,0],[0,0,1,1,1,1,0,0],[0,1,1,1,1,1,1,0],[0,1,1,1,1,1,1,0],[0,0,1,1,1,1,0,0],[0,0,1,1,1,1,0,0],[0,0,1,1,1,1,0,0],[0,0,1,1,1,1,0,0]]
}


