{
	"numberFruit": 68,
    "gravityType": 0,
	"timerBurn": 3,
    "mapData" :[[0,0,0,1,1,1,1,1],[0,0,1,1,1,1,1,1],[0,1,1,1,1,1,1,1],[1,1,1,1,1,1,1,1],[1,1,1,1,1,1,1,1],[1,1,1,1,1,1,1,1],[1,1,1,1,1,1,1,1],[1,1,1,1,1,1,1,0],[1,1,1,1,1,1,0,0],[1,1,1,1,1,0,0,0]]
}